simulation/qsim/motorproject.msim.vcd
$comment
	File created using the following command:
		vcd file motorproject.msim.vcd -direction
$end
$date
	Mon Dec 02 12:52:28 2024
$end
$version
	ModelSim Version 2020.1
$end
$timescale
	1ps
$end

$scope module motorcontroller_vhd_vec_tst $end
$var wire 1 ! CLK $end
$var wire 1 " KEY0 $end
$var wire 1 # KEY1 $end
$var wire 1 $ LSEG0 $end
$var wire 1 % LSEG1 $end
$var wire 1 & LSEG2 $end
$var wire 1 ' LSEG3 $end
$var wire 1 ( LSEG4 $end
$var wire 1 ) LSEG5 $end
$var wire 1 * LSEG6 $end
$var wire 1 + MOTORSPEED $end
$var wire 1 , RCOoutput $end
$var wire 1 - RESET $end
$var wire 1 . RSEG0 $end
$var wire 1 / RSEG1 $end
$var wire 1 0 RSEG2 $end
$var wire 1 1 RSEG3 $end
$var wire 1 2 RSEG4 $end
$var wire 1 3 RSEG5 $end
$var wire 1 4 RSEG6 $end
$var wire 1 5 TCLK $end

$scope module i1 $end
$var wire 1 6 gnd $end
$var wire 1 7 vcc $end
$var wire 1 8 unknown $end
$var wire 1 9 devoe $end
$var wire 1 : devclrn $end
$var wire 1 ; devpor $end
$var wire 1 < ww_devoe $end
$var wire 1 = ww_devclrn $end
$var wire 1 > ww_devpor $end
$var wire 1 ? ww_LSEG0 $end
$var wire 1 @ ww_RESET $end
$var wire 1 A ww_KEY0 $end
$var wire 1 B ww_KEY1 $end
$var wire 1 C ww_CLK $end
$var wire 1 D ww_LSEG1 $end
$var wire 1 E ww_LSEG2 $end
$var wire 1 F ww_LSEG3 $end
$var wire 1 G ww_LSEG4 $end
$var wire 1 H ww_LSEG5 $end
$var wire 1 I ww_LSEG6 $end
$var wire 1 J ww_RSEG0 $end
$var wire 1 K ww_RSEG1 $end
$var wire 1 L ww_RSEG2 $end
$var wire 1 M ww_RSEG3 $end
$var wire 1 N ww_RSEG4 $end
$var wire 1 O ww_RSEG5 $end
$var wire 1 P ww_RSEG6 $end
$var wire 1 Q ww_MOTORSPEED $end
$var wire 1 R ww_TCLK $end
$var wire 1 S ww_RCOoutput $end
$var wire 1 T \~QUARTUS_CREATED_ADC1~_CHSEL_bus\ [4] $end
$var wire 1 U \~QUARTUS_CREATED_ADC1~_CHSEL_bus\ [3] $end
$var wire 1 V \~QUARTUS_CREATED_ADC1~_CHSEL_bus\ [2] $end
$var wire 1 W \~QUARTUS_CREATED_ADC1~_CHSEL_bus\ [1] $end
$var wire 1 X \~QUARTUS_CREATED_ADC1~_CHSEL_bus\ [0] $end
$var wire 1 Y \~QUARTUS_CREATED_ADC2~_CHSEL_bus\ [4] $end
$var wire 1 Z \~QUARTUS_CREATED_ADC2~_CHSEL_bus\ [3] $end
$var wire 1 [ \~QUARTUS_CREATED_ADC2~_CHSEL_bus\ [2] $end
$var wire 1 \ \~QUARTUS_CREATED_ADC2~_CHSEL_bus\ [1] $end
$var wire 1 ] \~QUARTUS_CREATED_ADC2~_CHSEL_bus\ [0] $end
$var wire 1 ^ \inst3|inst3~clkctrl_INCLK_bus\ [3] $end
$var wire 1 _ \inst3|inst3~clkctrl_INCLK_bus\ [2] $end
$var wire 1 ` \inst3|inst3~clkctrl_INCLK_bus\ [1] $end
$var wire 1 a \inst3|inst3~clkctrl_INCLK_bus\ [0] $end
$var wire 1 b \inst6|tmp~clkctrl_INCLK_bus\ [3] $end
$var wire 1 c \inst6|tmp~clkctrl_INCLK_bus\ [2] $end
$var wire 1 d \inst6|tmp~clkctrl_INCLK_bus\ [1] $end
$var wire 1 e \inst6|tmp~clkctrl_INCLK_bus\ [0] $end
$var wire 1 f \CLK~inputclkctrl_INCLK_bus\ [3] $end
$var wire 1 g \CLK~inputclkctrl_INCLK_bus\ [2] $end
$var wire 1 h \CLK~inputclkctrl_INCLK_bus\ [1] $end
$var wire 1 i \CLK~inputclkctrl_INCLK_bus\ [0] $end
$var wire 1 j \RESET~inputclkctrl_INCLK_bus\ [3] $end
$var wire 1 k \RESET~inputclkctrl_INCLK_bus\ [2] $end
$var wire 1 l \RESET~inputclkctrl_INCLK_bus\ [1] $end
$var wire 1 m \RESET~inputclkctrl_INCLK_bus\ [0] $end
$var wire 1 n \~QUARTUS_CREATED_GND~I_combout\ $end
$var wire 1 o \~QUARTUS_CREATED_UNVM~~busy\ $end
$var wire 1 p \~QUARTUS_CREATED_ADC1~~eoc\ $end
$var wire 1 q \~QUARTUS_CREATED_ADC2~~eoc\ $end
$var wire 1 r \LSEG0~output_o\ $end
$var wire 1 s \LSEG1~output_o\ $end
$var wire 1 t \LSEG2~output_o\ $end
$var wire 1 u \LSEG3~output_o\ $end
$var wire 1 v \LSEG4~output_o\ $end
$var wire 1 w \LSEG5~output_o\ $end
$var wire 1 x \LSEG6~output_o\ $end
$var wire 1 y \RSEG0~output_o\ $end
$var wire 1 z \RSEG1~output_o\ $end
$var wire 1 { \RSEG2~output_o\ $end
$var wire 1 | \RSEG3~output_o\ $end
$var wire 1 } \RSEG4~output_o\ $end
$var wire 1 ~ \RSEG5~output_o\ $end
$var wire 1 !! \RSEG6~output_o\ $end
$var wire 1 "! \MOTORSPEED~output_o\ $end
$var wire 1 #! \RCOoutput~output_o\ $end
$var wire 1 $! \CLK~input_o\ $end
$var wire 1 %! \CLK~inputclkctrl_outclk\ $end
$var wire 1 &! \inst6|Add0~0_combout\ $end
$var wire 1 '! \inst6|count[0]~20_combout\ $end
$var wire 1 (! \inst6|Add0~1\ $end
$var wire 1 )! \inst6|Add0~2_combout\ $end
$var wire 1 *! \inst6|Add0~3\ $end
$var wire 1 +! \inst6|Add0~4_combout\ $end
$var wire 1 ,! \inst6|Add0~5\ $end
$var wire 1 -! \inst6|Add0~6_combout\ $end
$var wire 1 .! \inst6|Add0~7\ $end
$var wire 1 /! \inst6|Add0~8_combout\ $end
$var wire 1 0! \inst6|Add0~9\ $end
$var wire 1 1! \inst6|Add0~10_combout\ $end
$var wire 1 2! \inst6|Add0~11\ $end
$var wire 1 3! \inst6|Add0~12_combout\ $end
$var wire 1 4! \inst6|count~15_combout\ $end
$var wire 1 5! \inst6|Add0~13\ $end
$var wire 1 6! \inst6|Add0~14_combout\ $end
$var wire 1 7! \inst6|Add0~15\ $end
$var wire 1 8! \inst6|Add0~16_combout\ $end
$var wire 1 9! \inst6|Add0~17\ $end
$var wire 1 :! \inst6|Add0~18_combout\ $end
$var wire 1 ;! \inst6|Add0~19\ $end
$var wire 1 <! \inst6|Add0~20_combout\ $end
$var wire 1 =! \inst6|Add0~21\ $end
$var wire 1 >! \inst6|Add0~22_combout\ $end
$var wire 1 ?! \inst6|count~14_combout\ $end
$var wire 1 @! \inst6|Add0~23\ $end
$var wire 1 A! \inst6|Add0~24_combout\ $end
$var wire 1 B! \inst6|count~13_combout\ $end
$var wire 1 C! \inst6|Add0~25\ $end
$var wire 1 D! \inst6|Add0~26_combout\ $end
$var wire 1 E! \inst6|count~12_combout\ $end
$var wire 1 F! \inst6|Add0~27\ $end
$var wire 1 G! \inst6|Add0~28_combout\ $end
$var wire 1 H! \inst6|count~11_combout\ $end
$var wire 1 I! \inst6|Add0~29\ $end
$var wire 1 J! \inst6|Add0~30_combout\ $end
$var wire 1 K! \inst6|Equal0~5_combout\ $end
$var wire 1 L! \inst6|Equal0~6_combout\ $end
$var wire 1 M! \inst6|Equal0~8_combout\ $end
$var wire 1 N! \inst6|Equal0~7_combout\ $end
$var wire 1 O! \inst6|Equal0~9_combout\ $end
$var wire 1 P! \inst6|Add0~31\ $end
$var wire 1 Q! \inst6|Add0~32_combout\ $end
$var wire 1 R! \inst6|count~10_combout\ $end
$var wire 1 S! \inst6|Add0~33\ $end
$var wire 1 T! \inst6|Add0~34_combout\ $end
$var wire 1 U! \inst6|Add0~35\ $end
$var wire 1 V! \inst6|Add0~36_combout\ $end
$var wire 1 W! \inst6|count~9_combout\ $end
$var wire 1 X! \inst6|Add0~37\ $end
$var wire 1 Y! \inst6|Add0~38_combout\ $end
$var wire 1 Z! \inst6|count~8_combout\ $end
$var wire 1 [! \inst6|Equal0~3_combout\ $end
$var wire 1 \! \inst6|Add0~39\ $end
$var wire 1 ]! \inst6|Add0~40_combout\ $end
$var wire 1 ^! \inst6|count~19_combout\ $end
$var wire 1 _! \inst6|Add0~41\ $end
$var wire 1 `! \inst6|Add0~42_combout\ $end
$var wire 1 a! \inst6|count~18_combout\ $end
$var wire 1 b! \inst6|Add0~43\ $end
$var wire 1 c! \inst6|Add0~44_combout\ $end
$var wire 1 d! \inst6|count~17_combout\ $end
$var wire 1 e! \inst6|Add0~45\ $end
$var wire 1 f! \inst6|Add0~46_combout\ $end
$var wire 1 g! \inst6|Add0~47\ $end
$var wire 1 h! \inst6|Add0~48_combout\ $end
$var wire 1 i! \inst6|count~16_combout\ $end
$var wire 1 j! \inst6|Add0~49\ $end
$var wire 1 k! \inst6|Add0~50_combout\ $end
$var wire 1 l! \inst6|Add0~51\ $end
$var wire 1 m! \inst6|Add0~52_combout\ $end
$var wire 1 n! \inst6|Add0~53\ $end
$var wire 1 o! \inst6|Add0~54_combout\ $end
$var wire 1 p! \inst6|Add0~55\ $end
$var wire 1 q! \inst6|Add0~56_combout\ $end
$var wire 1 r! \inst6|Add0~57\ $end
$var wire 1 s! \inst6|Add0~58_combout\ $end
$var wire 1 t! \inst6|Add0~59\ $end
$var wire 1 u! \inst6|Add0~60_combout\ $end
$var wire 1 v! \inst6|Add0~61\ $end
$var wire 1 w! \inst6|Add0~62_combout\ $end
$var wire 1 x! \inst6|Equal0~0_combout\ $end
$var wire 1 y! \inst6|Equal0~1_combout\ $end
$var wire 1 z! \inst6|Equal0~2_combout\ $end
$var wire 1 {! \inst6|Equal0~4_combout\ $end
$var wire 1 |! \inst6|tmp~0_combout\ $end
$var wire 1 }! \inst6|tmp~feeder_combout\ $end
$var wire 1 ~! \inst6|tmp~q\ $end
$var wire 1 !" \inst6|tmp~clkctrl_outclk\ $end
$var wire 1 "" \KEY0~input_o\ $end
$var wire 1 #" \KEY1~input_o\ $end
$var wire 1 $" \inst7|inst41~0_combout\ $end
$var wire 1 %" \RESET~input_o\ $end
$var wire 1 &" \RESET~inputclkctrl_outclk\ $end
$var wire 1 '" \inst7|inst40~q\ $end
$var wire 1 (" \inst7|inst35~0_combout\ $end
$var wire 1 )" \inst7|inst17~0_combout\ $end
$var wire 1 *" \inst7|inst34~q\ $end
$var wire 1 +" \inst7|inst47~0_combout\ $end
$var wire 1 ," \inst7|inst46~q\ $end
$var wire 1 -" \inst7|inst12~0_combout\ $end
$var wire 1 ." \inst7|inst120~q\ $end
$var wire 1 /" \inst7|inst17~1_combout\ $end
$var wire 1 0" \inst7|inst16~q\ $end
$var wire 1 1" \inst7|inst23~0_combout\ $end
$var wire 1 2" \inst7|inst22~q\ $end
$var wire 1 3" \inst7|inst29~0_combout\ $end
$var wire 1 4" \inst7|inst28~q\ $end
$var wire 1 5" \inst2|inst~combout\ $end
$var wire 1 6" \inst2|inst3~combout\ $end
$var wire 1 7" \inst2|inst2~combout\ $end
$var wire 1 8" \inst|81~combout\ $end
$var wire 1 9" \inst|82~0_combout\ $end
$var wire 1 :" \inst|83~0_combout\ $end
$var wire 1 ;" \inst|84~0_combout\ $end
$var wire 1 <" \inst|85~combout\ $end
$var wire 1 =" \inst|86~0_combout\ $end
$var wire 1 >" \inst|87~combout\ $end
$var wire 1 ?" \inst2|inst4~combout\ $end
$var wire 1 @" \TCLK~input_o\ $end
$var wire 1 A" \inst3|inst3~0_combout\ $end
$var wire 1 B" \inst3|inst3~feeder_combout\ $end
$var wire 1 C" \inst3|inst3~q\ $end
$var wire 1 D" \inst3|inst3~clkctrl_outclk\ $end
$var wire 1 E" \inst5|inst|sub|9~0_combout\ $end
$var wire 1 F" \inst5|inst|sub|9~q\ $end
$var wire 1 G" \inst5|inst|sub|87~0_combout\ $end
$var wire 1 H" \inst5|inst|sub|87~q\ $end
$var wire 1 I" \inst5|inst|sub|99~0_combout\ $end
$var wire 1 J" \inst5|inst|sub|99~q\ $end
$var wire 1 K" \inst5|inst|sub|110~0_combout\ $end
$var wire 1 L" \inst5|inst|sub|110~q\ $end
$var wire 1 M" \inst5|inst|sub|104~combout\ $end
$var wire 1 N" \inst5|inst1|sub|9~0_combout\ $end
$var wire 1 O" \inst5|inst1|sub|9~q\ $end
$var wire 1 P" \inst5|inst4|sub|90~combout\ $end
$var wire 1 Q" \inst5|inst2|sub|88~3_combout\ $end
$var wire 1 R" \inst4|inst4~combout\ $end
$var wire 1 S" \inst4|inst1~combout\ $end
$var wire 1 T" \inst5|inst2|sub|91~combout\ $end
$var wire 1 U" \inst5|inst2|sub|88~0_combout\ $end
$var wire 1 V" \inst5|inst2|sub|88~1_combout\ $end
$var wire 1 W" \inst5|inst2|sub|88~2_combout\ $end
$var wire 1 X" \inst5|inst2|sub|84~combout\ $end
$var wire 1 Y" \inst5|inst2|sub|90~combout\ $end
$var wire 1 Z" \inst5|inst4|sub|87~0_combout\ $end
$var wire 1 [" \inst5|inst4|sub|84~combout\ $end
$var wire 1 \" \inst5|inst4|sub|87~1_combout\ $end
$var wire 1 ]" \inst3|inst|sub|9~0_combout\ $end
$var wire 1 ^" \inst3|inst|sub|9~q\ $end
$var wire 1 _" \inst3|inst|sub|92~combout\ $end
$var wire 1 `" \inst3|inst|sub|87~q\ $end
$var wire 1 a" \inst3|inst|sub|102~combout\ $end
$var wire 1 b" \inst3|inst|sub|99~q\ $end
$var wire 1 c" \inst3|inst4|sub|96~0_combout\ $end
$var wire 1 d" \inst3|inst4|sub|9~0_combout\ $end
$var wire 1 e" \inst3|inst4|sub|9~q\ $end
$var wire 1 f" \inst3|inst4|sub|96~1_combout\ $end
$var wire 1 g" \inst3|inst4|sub|98~combout\ $end
$var wire 1 h" \inst3|inst4|sub|99~q\ $end
$var wire 1 i" \inst3|inst4|sub|110~0_combout\ $end
$var wire 1 j" \inst3|inst4|sub|110~q\ $end
$var wire 1 k" \inst3|inst|sub|107~combout\ $end
$var wire 1 l" \inst3|inst|sub|108~combout\ $end
$var wire 1 m" \inst3|inst|sub|110~q\ $end
$var wire 1 n" \inst3|inst4|sub|87~0_combout\ $end
$var wire 1 o" \inst3|inst4|sub|87~q\ $end
$var wire 1 p" \inst3|inst4|sub|104~0_combout\ $end
$var wire 1 q" \inst3|inst4|sub|104~combout\ $end
$var wire 1 r" \inst6|count\ [31] $end
$var wire 1 s" \inst6|count\ [30] $end
$var wire 1 t" \inst6|count\ [29] $end
$var wire 1 u" \inst6|count\ [28] $end
$var wire 1 v" \inst6|count\ [27] $end
$var wire 1 w" \inst6|count\ [26] $end
$var wire 1 x" \inst6|count\ [25] $end
$var wire 1 y" \inst6|count\ [24] $end
$var wire 1 z" \inst6|count\ [23] $end
$var wire 1 {" \inst6|count\ [22] $end
$var wire 1 |" \inst6|count\ [21] $end
$var wire 1 }" \inst6|count\ [20] $end
$var wire 1 ~" \inst6|count\ [19] $end
$var wire 1 !# \inst6|count\ [18] $end
$var wire 1 "# \inst6|count\ [17] $end
$var wire 1 ## \inst6|count\ [16] $end
$var wire 1 $# \inst6|count\ [15] $end
$var wire 1 %# \inst6|count\ [14] $end
$var wire 1 &# \inst6|count\ [13] $end
$var wire 1 '# \inst6|count\ [12] $end
$var wire 1 (# \inst6|count\ [11] $end
$var wire 1 )# \inst6|count\ [10] $end
$var wire 1 *# \inst6|count\ [9] $end
$var wire 1 +# \inst6|count\ [8] $end
$var wire 1 ,# \inst6|count\ [7] $end
$var wire 1 -# \inst6|count\ [6] $end
$var wire 1 .# \inst6|count\ [5] $end
$var wire 1 /# \inst6|count\ [4] $end
$var wire 1 0# \inst6|count\ [3] $end
$var wire 1 1# \inst6|count\ [2] $end
$var wire 1 2# \inst6|count\ [1] $end
$var wire 1 3# \inst6|count\ [0] $end
$var wire 1 4# \inst2|ALT_INV_inst4~combout\ $end
$upscope $end
$upscope $end
$enddefinitions $end
#0
$dumpvars
0!
0"
0#
0$
0%
0&
0'
0(
0)
1*
0+
0,
1-
0.
0/
00
01
02
03
14
05
06
17
x8
19
1:
1;
1<
1=
1>
0?
1@
0A
0B
0C
0D
0E
0F
0G
0H
1I
0J
0K
0L
0M
0N
0O
1P
0Q
0R
0S
0n
zo
zp
zq
0r
0s
0t
0u
0v
0w
1x
0y
0z
0{
0|
0}
0~
1!!
0"!
0#!
0$!
0%!
0&!
1'!
1(!
1)!
1*!
0+!
0,!
0-!
1.!
0/!
00!
01!
12!
03!
04!
05!
06!
17!
08!
09!
0:!
1;!
0<!
0=!
0>!
0?!
1@!
0A!
0B!
0C!
0D!
0E!
1F!
0G!
0H!
0I!
0J!
0K!
0L!
0M!
0N!
0O!
1P!
0Q!
0R!
0S!
0T!
1U!
0V!
0W!
0X!
0Y!
0Z!
0[!
1\!
0]!
0^!
0_!
0`!
0a!
1b!
0c!
0d!
0e!
0f!
1g!
0h!
0i!
0j!
0k!
1l!
0m!
0n!
0o!
1p!
0q!
0r!
0s!
1t!
0u!
0v!
0w!
1x!
0y!
0z!
0{!
0|!
0}!
0~!
0!"
0""
0#"
0$"
1%"
1&"
0'"
0("
0)"
0*"
0+"
0,"
1-"
0."
0/"
00"
01"
02"
03"
04"
05"
06"
07"
08"
09"
0:"
0;"
0<"
0="
1>"
0?"
0@"
1A"
1B"
0C"
0D"
1E"
0F"
0G"
0H"
0I"
0J"
0K"
0L"
0M"
0N"
0O"
0P"
0Q"
0R"
0S"
0T"
1U"
0V"
0W"
0X"
0Y"
0Z"
0["
0\"
1]"
0^"
0_"
0`"
0a"
0b"
0c"
0d"
0e"
0f"
0g"
0h"
0i"
0j"
0k"
0l"
0m"
0n"
0o"
0p"
0q"
14#
0r"
0s"
0t"
0u"
0v"
0w"
0x"
0y"
0z"
0{"
0|"
0}"
0~"
0!#
0"#
0##
0$#
0%#
0&#
0'#
0(#
0)#
0*#
0+#
0,#
0-#
0.#
0/#
00#
01#
02#
03#
1f
1g
1h
0i
1b
1c
1d
0e
1j
1k
1l
1m
1^
1_
1`
0a
0T
0U
0V
0W
0X
0Y
0Z
0[
0\
0]
$end
#5000
1!
15
1C
1R
1@"
1$!
1i
1C"
1a
0A"
1%!
0B"
1D"
13#
12#
1^"
0]"
1_"
0)!
0*!
1&!
0(!
1F"
0E"
1G"
1V"
1Y"
1)!
1*!
0'!
1+!
0+!
1Z"
1W"
1X"
1\"
1"!
0\"
1Q
0"!
1+
0Q
0+
#10000
0!
05
1#
0-
0C
0R
1B
0@
0%"
1#"
0@"
0$!
0m
0i
1)"
1+"
0%!
0&"
#15000
1!
15
1C
1R
1@"
1$!
1i
0C"
0a
1A"
1%!
1B"
0D"
03#
0^"
1`"
1]"
0&!
1(!
0)!
0*!
1'!
1+!
#20000
0!
05
0C
0R
0@"
0$!
0i
0%!
#25000
1!
15
1C
1R
1@"
1$!
1i
1C"
1a
0A"
1%!
0B"
1D"
13#
02#
11#
1^"
0]"
0_"
1a"
0+!
1,!
1)!
1*!
1&!
0(!
0F"
1H"
1E"
0V"
0Y"
0)!
0'!
1+!
0,!
1-!
0-!
#30000
0!
05
0#
1"
0C
0R
0B
1A
1""
0#"
0@"
0$!
0i
0+"
0-"
0%!
#35000
1!
15
1C
1R
1@"
1$!
1i
0C"
0a
1A"
1%!
1B"
0D"
03#
0^"
0`"
1b"
1]"
0&!
1(!
1)!
1'!
#40000
0!
05
0C
0R
0@"
0$!
0i
0%!
#45000
1!
15
1C
1R
1@"
1$!
1i
1C"
1a
0A"
1%!
0B"
1D"
13#
12#
1^"
0]"
1_"
0)!
0*!
1&!
0(!
1F"
0E"
0G"
1I"
1V"
1Y"
1)!
1*!
0'!
0+!
1,!
1-!
1+!
0,!
0-!
#50000
0!
05
0"
0C
0R
0A
0""
0@"
0$!
0i
0)"
1-"
0%!
#55000
1!
15
1C
1R
1@"
1$!
1i
0C"
0a
1A"
1%!
1B"
0D"
03#
0^"
1`"
1]"
0&!
1(!
0)!
0*!
1'!
0+!
1,!
1-!
#60000
0!
05
0C
0R
0@"
0$!
0i
0%!
#65000
1!
15
1C
1R
1@"
1$!
1i
1C"
1a
0A"
1%!
0B"
1D"
13#
02#
01#
10#
1^"
0]"
0_"
0a"
1c"
1k"
0-!
0.!
1+!
0,!
1)!
1*!
1&!
0(!
0F"
0H"
1J"
1Q"
1T"
1E"
0V"
0Y"
0)!
0'!
0+!
1-!
1.!
1/!
1l"
0/!
0Z"
0W"
0U"
1Z"
#70000
0!
05
0C
0R
0@"
0$!
0i
0%!
#75000
1!
15
1C
1R
1@"
1$!
1i
0C"
0a
1A"
1%!
1B"
0D"
03#
0^"
0`"
0b"
1m"
1d"
1]"
0c"
0&!
1(!
1)!
1'!
0d"
#80000
0!
05
0C
0R
0@"
0$!
0i
0%!
#85000
1!
15
1C
1R
1@"
1$!
1i
1C"
1a
0A"
1%!
0B"
1D"
13#
12#
1^"
0]"
1_"
0)!
0*!
1&!
0(!
1F"
0E"
1G"
1V"
1Y"
1)!
1*!
0'!
1+!
0+!
#90000
0!
05
0C
0R
0@"
0$!
0i
0%!
#95000
1!
15
1C
1R
1@"
1$!
1i
0C"
0a
1A"
1%!
1B"
0D"
03#
0^"
1`"
1]"
0&!
1(!
0)!
0*!
1'!
1+!
#100000
0!
05
0C
0R
0@"
0$!
0i
0%!
#105000
1!
15
1C
1R
1@"
1$!
1i
1C"
1a
0A"
1%!
0B"
1D"
13#
02#
11#
1^"
0]"
0_"
1a"
0+!
1,!
1)!
1*!
1&!
0(!
0F"
1H"
1E"
0V"
0Y"
0)!
0'!
1+!
0,!
0-!
0.!
1/!
1-!
1.!
0/!
#110000
0!
05
0C
0R
0@"
0$!
0i
0%!
#115000
1!
15
1C
1R
1@"
1$!
1i
0C"
0a
1A"
1%!
1B"
0D"
03#
0^"
0`"
1b"
1]"
0&!
1(!
1)!
1'!
#120000
0!
05
0C
0R
0@"
0$!
0i
0%!
#125000
1!
15
1C
1R
1@"
1$!
1i
1C"
1a
0A"
1%!
0B"
1D"
13#
12#
1^"
0]"
1_"
0)!
0*!
1&!
0(!
1F"
0E"
0G"
0I"
1K"
1V"
1Y"
1)!
1*!
0'!
0+!
1,!
0-!
0.!
1+!
0,!
1-!
1.!
1/!
0/!
#130000
0!
05
0C
0R
0@"
0$!
0i
0%!
#135000
1!
15
1C
1R
1@"
1$!
1i
0C"
0a
1A"
1%!
1B"
0D"
03#
0^"
1`"
1]"
0&!
1(!
0)!
0*!
1'!
0+!
1,!
0-!
0.!
1/!
#140000
0!
05
0C
0R
0@"
0$!
0i
0%!
#145000
1!
15
1C
1R
1@"
1$!
1i
1C"
1a
0A"
1%!
0B"
1D"
13#
02#
01#
00#
1/#
1^"
0]"
0_"
0a"
1c"
0k"
0/!
10!
1-!
1.!
1+!
0,!
1)!
1*!
1&!
0(!
1M!
0F"
0H"
0J"
1L"
0Q"
0T"
1E"
0V"
0Y"
0)!
0'!
0+!
0-!
1/!
00!
11!
0l"
1d"
01!
#150000
0!
05
0C
0R
0@"
0$!
0i
0%!
#155000
1!
15
1C
1R
1@"
1$!
1i
0C"
0a
1A"
1%!
1B"
0D"
03#
0^"
0`"
0b"
1e"
0m"
1]"
0c"
0&!
1(!
0M!
1)!
1'!
#160000
0!
05
0C
0R
0@"
0$!
0i
0%!
#165000
1!
15
1C
1R
1@"
1$!
1i
1C"
1a
0A"
1%!
0B"
1D"
13#
12#
1^"
0]"
1_"
0)!
0*!
1&!
0(!
1F"
0E"
1G"
1V"
1Y"
1)!
1*!
0'!
1+!
0+!
#170000
0!
05
0C
0R
0@"
0$!
0i
0%!
#175000
1!
15
1C
1R
1@"
1$!
1i
0C"
0a
1A"
1%!
1B"
0D"
03#
0^"
1`"
1]"
0&!
1(!
0)!
0*!
1'!
1+!
#180000
0!
05
0C
0R
0@"
0$!
0i
0%!
#185000
1!
15
1C
1R
1@"
1$!
1i
1C"
1a
0A"
1%!
0B"
1D"
13#
02#
11#
1^"
0]"
0_"
1a"
0+!
1,!
1)!
1*!
1&!
0(!
0F"
1H"
1E"
0V"
0Y"
0)!
0'!
1+!
0,!
1-!
0-!
#190000
0!
05
0C
0R
0@"
0$!
0i
0%!
#195000
1!
15
1C
1R
1@"
1$!
1i
0C"
0a
1A"
1%!
1B"
0D"
03#
0^"
0`"
1b"
1]"
0&!
1(!
1)!
1'!
#200000
0!
05
0C
0R
0@"
0$!
0i
0%!
#205000
1!
15
1C
1R
1@"
1$!
1i
1C"
1a
0A"
1%!
0B"
1D"
13#
12#
1^"
0]"
1_"
0)!
0*!
1&!
0(!
1F"
0E"
0G"
1I"
1V"
1Y"
1)!
1*!
0'!
0+!
1,!
1-!
1+!
0,!
0-!
#210000
0!
05
0C
0R
0@"
0$!
0i
0%!
#215000
1!
15
1C
1R
1@"
1$!
1i
0C"
0a
1A"
1%!
1B"
0D"
03#
0^"
1`"
1]"
0&!
1(!
0)!
0*!
1'!
0+!
1,!
1-!
#220000
0!
05
0C
0R
0@"
0$!
0i
0%!
#225000
1!
15
1C
1R
1@"
1$!
1i
1C"
1a
0A"
1%!
0B"
1D"
13#
02#
01#
10#
1^"
0]"
0_"
0a"
1c"
1k"
0-!
0.!
1+!
0,!
1)!
1*!
1&!
0(!
0F"
0H"
1J"
1Q"
1T"
1E"
0V"
0Y"
0)!
0'!
0+!
1-!
1.!
0/!
10!
1l"
11!
1/!
00!
01!
#230000
0!
05
0C
0R
0@"
0$!
0i
0%!
#235000
1!
15
1C
1R
1@"
1$!
1i
0C"
0a
1A"
1%!
1B"
0D"
03#
0^"
0`"
0b"
1m"
0d"
1n"
1]"
0c"
0&!
1(!
1)!
1'!
1d"
0n"
#240000
0!
05
0C
0R
0@"
0$!
0i
0%!
#245000
1!
15
1C
1R
1@"
1$!
1i
1C"
1a
0A"
1%!
0B"
1D"
13#
12#
1^"
0]"
1_"
0)!
0*!
1&!
0(!
1F"
0E"
1G"
1V"
1Y"
1)!
1*!
0'!
1+!
0+!
#250000
0!
05
0C
0R
0@"
0$!
0i
0%!
#255000
1!
15
1C
1R
1@"
1$!
1i
0C"
0a
1A"
1%!
1B"
0D"
03#
0^"
1`"
1]"
0&!
1(!
0)!
0*!
1'!
1+!
#260000
0!
05
0C
0R
0@"
0$!
0i
0%!
#265000
1!
15
1C
1R
1@"
1$!
1i
1C"
1a
0A"
1%!
0B"
1D"
13#
02#
11#
1^"
0]"
0_"
1a"
0+!
1,!
1)!
1*!
1&!
0(!
0F"
1H"
1E"
0V"
0Y"
0)!
0'!
1+!
0,!
0-!
0.!
0/!
10!
1-!
1.!
1/!
00!
11!
01!
#270000
0!
05
0C
0R
0@"
0$!
0i
0%!
#275000
1!
15
1C
1R
1@"
1$!
1i
0C"
0a
1A"
1%!
1B"
0D"
03#
0^"
0`"
1b"
1]"
0&!
1(!
1)!
1'!
#280000
0!
05
0C
0R
0@"
0$!
0i
0%!
#285000
1!
15
1C
1R
1@"
1$!
1i
1C"
1a
0A"
1%!
0B"
1D"
13#
12#
1^"
0]"
1_"
0)!
0*!
1&!
0(!
1F"
0E"
0G"
0I"
0K"
1M"
1V"
1Y"
1)!
1*!
0'!
0+!
1,!
0-!
0.!
1+!
0,!
1N"
1-!
1.!
0/!
10!
11!
1/!
00!
01!
#290000
0!
05
0C
0R
0@"
0$!
0i
0%!
#295000
1!
15
1C
1R
1@"
1$!
1i
0C"
0a
1A"
1%!
1B"
0D"
03#
0^"
1`"
1]"
0&!
1(!
0)!
0*!
1'!
0+!
1,!
0-!
0.!
0/!
10!
11!
#300000
0!
05
0C
0R
0@"
0$!
0i
0%!
#305000
1!
15
1C
1R
1@"
1$!
1i
1C"
1a
0A"
1%!
0B"
1D"
13#
02#
01#
00#
0/#
1.#
1^"
0]"
0_"
0a"
1c"
0k"
01!
02!
1/!
00!
1-!
1.!
1+!
0,!
1)!
1*!
1&!
0(!
1M!
0F"
0H"
0J"
0L"
1O"
0N"
1P"
1["
0Q"
0T"
1E"
0M"
0V"
0Y"
0)!
0'!
0+!
0-!
0/!
11!
12!
13!
0l"
0d"
1n"
14!
03!
1N"
1U"
0X"
0Z"
04!
#310000
0!
05
0C
0R
0@"
0$!
0i
0%!
#315000
1!
15
1C
1R
1@"
1$!
1i
0C"
0a
1A"
1%!
1B"
0D"
03#
0^"
0`"
0b"
0e"
0m"
1o"
1]"
0c"
0&!
1(!
0M!
1)!
1'!
#320000
0!
05
0C
0R
0@"
0$!
0i
0%!
#325000
1!
15
1C
1R
1@"
1$!
1i
1C"
1a
0A"
1%!
0B"
1D"
13#
12#
1^"
0]"
1_"
0)!
0*!
1&!
0(!
1F"
0E"
1G"
1V"
1Y"
1)!
1*!
0'!
1+!
0+!
1Z"
1W"
1X"
#330000
0!
05
0C
0R
0@"
0$!
0i
0%!
#335000
1!
15
1C
1R
1@"
1$!
1i
0C"
0a
1A"
1%!
1B"
0D"
03#
0^"
1`"
1]"
0&!
1(!
0)!
0*!
1'!
1+!
#340000
0!
05
0C
0R
0@"
0$!
0i
0%!
#345000
1!
15
1C
1R
1@"
1$!
1i
1C"
1a
0A"
1%!
0B"
1D"
13#
02#
11#
1^"
0]"
0_"
1a"
0+!
1,!
1)!
1*!
1&!
0(!
0F"
1H"
1E"
0V"
0Y"
0)!
0'!
1+!
0,!
1-!
0-!
#350000
0!
05
0C
0R
0@"
0$!
0i
0%!
#355000
1!
15
1C
1R
1@"
1$!
1i
0C"
0a
1A"
1%!
1B"
0D"
03#
0^"
0`"
1b"
1]"
0&!
1(!
1)!
1'!
#360000
0!
05
0C
0R
0@"
0$!
0i
0%!
